Bolívar Aponte Rolón | Loop Less, Do More: Iterating Efficiently with <code>purrr</code> – Bolívar Aponte Rolón
…
When we work with R work are working with object that are atomic vectors of different types (e.g., character, numerical, integers, floats, etc.). One of the most powerful data structures in R are lists. Lists are a collection of objects that can be of any type. This makes them very flexible and powerful. We can have a list of data frames (which are list themselves), plots, functions, etc. In this exercise, map() returned a list of ggplots. Now one of the most useful things I have learned lately is the list columns.

List columns are a column in a data frame that contains a list. This is allows us to store multiple objects in a single column. Having a list column within a data frame or by it self can help us reduce the number of intermediate object that we create within a project. Instead of creating an object for each plot or linear models, we can store them in a list column in a single object that we can access and use throughout our analyses.

Let’s see how lists columns work. We are going to use nest() to summarize grouped data by nesting the non-grouping variables into a list column of data frames—one data frame per group.

life_expectancy <-
  gapminder |> 
  select(country, continent, year, lifeExp) |> 
  group_by(country, continent) |> 
  nest()

life_expectancy

# A tibble: 142 × 3
# Groups:   country, continent [142]
   country     continent data             
   <fct>       <fct>     <list>           
 1 Afghanistan Asia      <tibble [12 × 2]>
 2 Albania     Europe    <tibble [12 × 2]>
 3 Algeria     Africa    <tibble [12 × 2]>
 4 Angola      Africa    <tibble [12 × 2]>
 5 Argentina   Americas  <tibble [12 × 2]>
 6 Australia   Oceania   <tibble [12 × 2]>
 7 Austria     Europe    <tibble [12 × 2]>
 8 Bahrain     Asia      <tibble [12 × 2]>
 9 Bangladesh  Asia      <tibble [12 × 2]>
10 Belgium     Europe    <tibble [12 × 2]>
# ℹ 132 more rows
…
# Fit a linear model to each data frame in the list column
gap_list_df <- gapminder |> 
  select(country, year, pop) |> 
  group_by(country) |> 
  nest() |> 
  mutate(
    model = map(data, fit_pop),
    plot = map(data, plot_pop),
    pop_2030 = map_dbl(model, pred_pop)
  )

gap_list_df

# A tibble: 142 × 5
# Groups:   country [142]
   country     data              model  plot     pop_2030
   <fct>       <list>            <list> <list>      <dbl>
 1 Afghanistan <tibble [12 × 2]> <lm>   <gg>    33846451.
 2 Albania     <tibble [12 × 2]> <lm>   <gg>     4879306.
 3 Algeria     <tibble [12 × 2]> <lm>   <gg>    43758285.
 4 Angola      <tibble [12 × 2]> <lm>   <gg>    14598072.
 5 Argentina   <tibble [12 × 2]> <lm>   <gg>    49706374.
 6 Australia   <tibble [12 × 2]> <lm>   <gg>    25613532.
 7 Austria     <tibble [12 × 2]> <lm>   <gg>     8784507.
 8 Bahrain     <tibble [12 × 2]> <lm>   <gg>      956764.
 9 Bangladesh  <tibble [12 × 2]> <lm>   <gg>   187136396.
10 Belgium     <tibble [12 × 2]> <lm>   <gg>    11138373.
# ℹ 132 more rows
…
